not this answer necessarily :)

sent:      
0          
sent:      
1          
recieved:  
sent:      
2          
0          
sent:      
3          
recieved:  
1          
sent:      
4          
recieved:  
2          
sent:      
5          
recieved:  
3          
sent:      
6          
recieved:  
4          
sent:      
7          
recieved:  
5          
sent:      
8          
recieved:  
6          
sent:      
9          
recieved:  
7          
recieved:  
8          
recieved:  
9          